__CFG_XINST$OFF 0 0 ABS 0
__end_of_readBusyFlag 1E1A 0 CODE 0
__S0 20000 0 ABS 0
__S1 A0 0 ABS 0
__S2 0 0 ABS 0
_SSP2STATbits F1A 0 ABS 0
__Hintentry 0 0 ABS 0
__Lintentry 0 0 ABS 0
putchLCD@input 4 0 COMRAM 1
_main 1A50 0 CODE 0
___sp 0 0 STACK 2
start 0 0 CODE 0
__size_of_spi_Send_Read 0 0 ABS 0
__Hirdata 0 0 CODE 0
_TRISE F96 0 ABS 0
__Lirdata 0 0 CODE 0
__HRAM 0 0 ABS 0
__LRAM 1 0 ABS 0
__CFG_WDTPS$32768 0 0 ABS 0
__Hconfig 20000 0 CONFIG 0
__Lconfig 1FFF0 0 CONFIG 0
_LectureKeyboard E58 0 CODE 0
__Hbigram 0 0 ABS 0
__Lbigram 0 0 ABS 0
__Hrparam 0 0 COMRAM 1
__Lrparam 0 0 COMRAM 1
__Hram 0 0 ABS 0
__Lram 0 0 ABS 0
__Hcomram 0 0 ABS 0
__Lcomram 0 0 ABS 0
LectureKeyboard@KeyBoard 5 0 COMRAM 1
__Hsfr 0 0 ABS 0
__Lsfr 0 0 ABS 0
__Hbss 0 0 RAM 1
__CFG_STVREN$ON 0 0 ABS 0
__Lbss 0 0 RAM 1
___param_bank 0 0 ABS 0
__Hnvrram 0 0 COMRAM 1
__Lnvrram 0 0 COMRAM 1
LireLigne@ligne 1 0 COMRAM 1
_InitilizationKeyboard 1E66 0 CODE 0
_ActiveColonne 1C08 0 CODE 0
moveCursor@col 6 0 COMRAM 1
__end_of_ActiveColonne 1C6E 0 CODE 0
_LATDbits F8C 0 ABS 0
__Hintsave_regs 0 0 BIGRAM 1
_LATEbits F8D 0 ABS 0
__Lintsave_regs 0 0 BIGRAM 1
__size_of_ActiveColonne 0 0 ABS 0
__Hbigbss 0 0 BIGRAM 1
__Lbigbss 0 0 BIGRAM 1
__Hintret 0 0 ABS 0
__Lintret 0 0 ABS 0
__Hramtop E00 0 RAM 0
__Lramtop E00 0 RAM 0
__Hstruct 0 0 COMRAM 1
__Lstruct 0 0 COMRAM 1
__Hbigdata 0 0 BIGRAM 1
__Lbigdata 0 0 BIGRAM 1
__Hmediumconst 0 0 MEDIUMCONST 0
LectureKeyboard@compteur 35 0 COMRAM 1
__Lmediumconst 0 0 MEDIUMCONST 0
__end_of_displayCtrl 1CC4 0 CODE 0
__Hfarbss 0 0 FARRAM 0
__Lfarbss 0 0 FARRAM 0
AfficherTouche@KeyBoard B 0 COMRAM 1
__Hintcode 0 0 CODE 0
__Lintcode 0 0 CODE 0
__Hfardata 0 0 FARRAM 0
__Lfardata 0 0 FARRAM 0
__end_of_initialisation_SPI 1DFC 0 CODE 0
_OSCCON FD3 0 ABS 0
__Habs1 0 0 ABS 0
__Labs1 0 0 ABS 0
displayCtrl@blink 4 0 COMRAM 1
_LireLigne 1982 0 CODE 0
__HnvFARRAM 0 0 FARRAM 0
__end_of_spi_Send_Read 1E38 0 CODE 0
__LnvFARRAM 0 0 FARRAM 0
_RPOR22_23 E1D 0 ABS 0
_clearDisplay 1D9C 0 CODE 0
__size_of_initialisation_LCD 0 0 ABS 0
_RPOR24_25 E1E 0 ABS 0
__size_of_putStringLCD 0 0 ABS 0
__Hdata 0 0 ABS 0
__Ldata 0 0 ABS 0
stackhi DF9 0 ABS 0
__Htemp 0 0 COMRAM 1
__Ltemp 0 0 COMRAM 1
stacklo A0 0 ABS 0
__Hrbit 0 0 COMRAM 1
__Lrbit 0 0 COMRAM 1
__Hinit 4 0 CODE 0
__Linit 0 0 CODE 0
__Hintcodelo 0 0 CODE 0
__Lintcodelo 0 0 CODE 0
__Hrbss 0 0 COMRAM 1
__end_of_main 1B10 0 CODE 0
__Lrbss 0 0 COMRAM 1
_fliplr 1CC4 0 CODE 0
__Htext 0 0 ABS 0
_displayCtrl 1C6E 0 CODE 0
__Ltext 0 0 ABS 0
end_of_initialization 1E60 0 CODE 0
main@F10946 60 0 BANK0 1
_readBusyFlag 1DFC 0 CODE 0
__size_of_moveCursor 0 0 ABS 0
__end_of_putStringLCD 1B9A 0 CODE 0
__size_of_initialisation_PORT 0 0 ABS 0
_TRISCbits F94 0 ABS 0
_TRISDbits F95 0 ABS 0
__size_of_LectureKeyboard 0 0 ABS 0
_PORTEbits F84 0 ABS 0
displayCtrl@cursor 3 0 COMRAM 1
_SSP2BUF F03 0 ABS 0
readBusyFlag@retValue 2 0 COMRAM 1
__Hibigdata 0 0 CODE 0
__Libigdata 0 0 CODE 0
__Hifardata 0 0 CODE 0
__Lifardata 0 0 CODE 0
__size_of_InitilizationKeyboard 0 0 ABS 0
__Hbank0 0 0 ABS 0
__Lbank0 0 0 ABS 0
__Hbank1 0 0 ABS 0
__Lbank1 0 0 ABS 0
__end_of_putchLCD 1D5C 0 CODE 0
__Hbank2 0 0 ABS 0
__Lbank2 0 0 ABS 0
__Hbank3 0 0 ABS 0
__Lbank3 0 0 ABS 0
__Hbank4 0 0 ABS 0
__Lbank4 0 0 ABS 0
__end_of_fliplr 1D1A 0 CODE 0
__Hbank5 0 0 ABS 0
__Lbank5 0 0 ABS 0
__Hpowerup 0 0 CODE 0
__Lpowerup 0 0 CODE 0
__Hbank6 0 0 ABS 0
__Lbank6 0 0 ABS 0
__size_of_clearDisplay 0 0 ABS 0
__Hbank7 0 0 ABS 0
__Lbank7 0 0 ABS 0
?_LireLigne 1 0 COMRAM 1
__Hbank8 0 0 ABS 0
__Lbank8 0 0 ABS 0
__Htext0 0 0 ABS 0
__Ltext0 0 0 ABS 0
__Hbank9 0 0 ABS 0
__Lbank9 0 0 ABS 0
__Htext1 0 0 ABS 0
__Ltext1 0 0 ABS 0
__ptext0 1A50 0 CODE 0
__Htext2 0 0 ABS 0
__Ltext2 0 0 ABS 0
__ptext1 1B9A 0 CODE 0
__Htext3 0 0 ABS 0
__Ltext3 0 0 ABS 0
__ptext2 1E38 0 CODE 0
_RPINR12_13 E30 0 ABS 0
__Htext4 0 0 ABS 0
__Ltext4 0 0 ABS 0
__ptext3 1DD0 0 CODE 0
__Htext5 0 0 ABS 0
__Ltext5 0 0 ABS 0
__ptext4 1D5C 0 CODE 0
__end_of_clearDisplay 1DD0 0 CODE 0
__Htext6 0 0 ABS 0
__Ltext6 0 0 ABS 0
__ptext5 1C6E 0 CODE 0
__Htext7 0 0 ABS 0
__Ltext7 0 0 ABS 0
__ptext6 1D9C 0 CODE 0
__Htext8 0 0 ABS 0
__Ltext8 0 0 ABS 0
__ptext7 E58 0 CODE 0
__Htext9 0 0 ABS 0
__Ltext9 0 0 ABS 0
__ptext8 1982 0 CODE 0
__ptext9 1C08 0 CODE 0
__Hclrtext 0 0 ABS 0
__Lclrtext 0 0 ABS 0
moveCursor@address 8 0 COMRAM 1
__end_of__initialization 1E60 0 CODE 0
___rparam_used 1 0 ABS 0
__Hidata 0 0 CODE 0
__Lidata 0 0 CODE 0
__Hrdata 0 0 COMRAM 1
__Lrdata 0 0 COMRAM 1
__Hidloc 0 0 IDLOC 0
__CFG_BORV$ 3 0 ABS 0
__Lidloc 0 0 IDLOC 0
__Hstack 0 0 STACK 2
__Lstack 0 0 STACK 2
__Hparam 0 0 COMRAM 1
__Lparam 0 0 COMRAM 1
__Hspace_0 20000 0 ABS 0
__HcstackCOMRAM 0 0 ABS 0
__Lspace_0 0 0 ABS 0
__LcstackCOMRAM 0 0 ABS 0
__pcstackCOMRAM 1 0 COMRAM 1
__Hspace_1 A0 0 ABS 0
__Lspace_1 0 0 ABS 0
__Hsmallconst E58 0 SMALLCONST 0
__Lsmallconst E00 0 SMALLCONST 0
ActiveColonne@colonne 1 0 COMRAM 1
__psmallconst E00 0 SMALLCONST 0
__Hspace_2 0 0 ABS 0
__Lspace_2 0 0 ABS 0
__Hnvbit 0 0 COMRAM 1
__Lnvbit 0 0 COMRAM 1
__Hcinit 0 0 ABS 0
__Lcinit 0 0 ABS 0
__pcinit 1E54 0 CODE 0
__ramtop E00 0 RAM 0
__mediumconst 0 0 MEDIUMCONST 0
__end_of_moveCursor 1C08 0 CODE 0
__size_of_main 0 0 ABS 0
__Hconst 0 0 CONST 0
LectureKeyboard@key 33 0 COMRAM 1
__Lconst 0 0 CONST 0
_AfficherTouche 16A4 0 CODE 0
_putStringLCD 1B10 0 CODE 0
__size_of_putchLCD 0 0 ABS 0
LectureKeyboard@ligne 3B 0 COMRAM 1
LectureKeyboard@F11296 80 0 BANK0 1
__HbssBANK0 0 0 ABS 0
__LbssBANK0 0 0 ABS 0
_SSP2CON1 F19 0 ABS 0
__end_of_LectureKeyboard 16A4 0 CODE 0
__Hbank10 0 0 ABS 0
__pbssBANK0 60 0 BANK0 1
LectureKeyboard@releaseTab 13 0 COMRAM 1
__Lbank10 0 0 ABS 0
__Hbank11 0 0 ABS 0
__Lbank11 0 0 ABS 0
_SSP2CON3 F39 0 ABS 0
__Hbank12 0 0 ABS 0
__Lbank12 0 0 ABS 0
__Hbank13 0 0 ABS 0
__Lbank13 0 0 ABS 0
displayCtrl@display 5 0 COMRAM 1
__Htext10 0 0 ABS 0
__Ltext10 0 0 ABS 0
__ptext10 1E66 0 CODE 0
__Htext11 0 0 ABS 0
__Ltext11 0 0 ABS 0
__ptext11 16A4 0 CODE 0
main@KeyBoard 3F 0 COMRAM 1
__Htext12 0 0 ABS 0
__Ltext12 0 0 ABS 0
__ptext12 1B10 0 CODE 0
__Htext13 0 0 ABS 0
__Ltext13 0 0 ABS 0
moveCursor@row 4 0 COMRAM 1
__ptext13 1D1A 0 CODE 0
__Htext14 0 0 ABS 0
__Ltext14 0 0 ABS 0
__ptext14 1DFC 0 CODE 0
__Htext15 0 0 ABS 0
__Ltext15 0 0 ABS 0
__ptext15 1E1A 0 CODE 0
___inthi_sp 0 0 STACK 2
__Htext16 0 0 ABS 0
__Ltext16 0 0 ABS 0
__ptext16 1CC4 0 CODE 0
___intlo_sp 0 0 STACK 2
_spi_Send_Read 1E1A 0 CODE 0
_initialisation_LCD 1E38 0 CODE 0
_initialisation_SPI 1DD0 0 CODE 0
_initialisation_PORT 1D5C 0 CODE 0
putStringLCD@input 5 0 COMRAM 1
__Hjflash_buffer 1FBF8 0 CODE 0
__Ljflash_buffer 1FBF8 0 CODE 0
__end_of_LireLigne 1A50 0 CODE 0
_putchLCD 1D1A 0 CODE 0
__smallconst E00 0 SMALLCONST 0
__Hreset_vec 0 0 CODE 0
__Lreset_vec 0 0 CODE 0
__size_of_readBusyFlag 0 0 ABS 0
__size_of_initialisation_SPI 0 0 ABS 0
fliplr@input 3 0 COMRAM 1
__accesstop 60 0 ABS 0
__Hintcode_body 0 0 ABS 0
__Lintcode_body 0 0 ABS 0
intlevel0 0 0 CODE 0
intlevel1 0 0 CODE 0
_SSP2STAT F1A 0 ABS 0
_moveCursor 1B9A 0 CODE 0
intlevel2 0 0 CODE 0
intlevel3 0 0 CODE 0
__size_of_fliplr 0 0 ABS 0
spi_Send_Read@byte 1 0 COMRAM 1
__size_of_LireLigne 0 0 ABS 0
LectureKeyboard@release 37 0 COMRAM 1
LectureKeyboard@colonne 39 0 COMRAM 1
putStringLCD@i 9 0 COMRAM 1
start_initialization 1E54 0 CODE 0
main@status 5F 0 COMRAM 1
__size_of_AfficherTouche 0 0 ABS 0
__size_of_displayCtrl 0 0 ABS 0
__end_of_initialisation_LCD 1E54 0 CODE 0
__CFG_IESO$OFF 0 0 ABS 0
__end_of_AfficherTouche 1982 0 CODE 0
__end_of_InitilizationKeyboard 1E72 0 CODE 0
__CFG_FOSC$FRC 0 0 ABS 0
__initialization 1E54 0 CODE 0
__activetblptr 3 0 ABS 0
__end_of_initialisation_PORT 1D9C 0 CODE 0
displayCtrl@BCD 6 0 COMRAM 1
%segments
reset_vec 0 3 CODE 0 0
smallconst E00 E57 SMALLCONST E00 0
config 1FFF0 1FFFF CONFIG 1FFF0 0
cstackCOMRAM 1 5F COMRAM 1 1
bssBANK0 60 9F BANK0 60 1
text7 E58 1E71 CODE E58 0
%locals
dist/default/production\Telecommande_P4.X.production.o
C:\Program Files (x86)\Microchip\xc8\v2.00\pic\include\pic18f67j94.h
C:\Users\Sam\AppData\Local\Temp\s2vg.
4763 1E54 0 CODE 0
4765 1E54 0 CODE 0
4768 1E54 0 CODE 0
4781 1E54 0 CODE 0
4782 1E58 0 CODE 0
4783 1E5A 0 CODE 0
4784 1E5A 0 CODE 0
4785 1E5C 0 CODE 0
4786 1E5E 0 CODE 0
4792 1E60 0 CODE 0
4794 1E60 0 CODE 0
4795 1E62 0 CODE 0
C:/Users/Sam/Desktop/UdeS/S5/Projet/Telecommande_P4.X/main.c
5 1A50 0 CODE 0
7 1A50 0 CODE 0
10 1A54 0 CODE 0
20 1A66 0 CODE 0
22 1A6A 0 CODE 0
25 1A6E 0 CODE 0
26 1A72 0 CODE 0
28 1A88 0 CODE 0
29 1A94 0 CODE 0
30 1AA8 0 CODE 0
31 1AB4 0 CODE 0
32 1AC8 0 CODE 0
33 1AD4 0 CODE 0
36 1AEC 0 CODE 0
39 1AEC 0 CODE 0
41 1AF8 0 CODE 0
43 1B08 0 CODE 0
44 1B0C 0 CODE 0
C:/Users/Sam/Desktop/UdeS/S5/Projet/Telecommande_P4.X/LCD_SPI.c
78 1B9A 0 CODE 0
80 1B9A 0 CODE 0
81 1BA4 0 CODE 0
83 1BC0 0 CODE 0
84 1BC8 0 CODE 0
85 1BC8 0 CODE 0
86 1BD0 0 CODE 0
87 1BEC 0 CODE 0
88 1BEE 0 CODE 0
89 1BF4 0 CODE 0
90 1BFC 0 CODE 0
91 1C06 0 CODE 0
C:/Users/Sam/Desktop/UdeS/S5/Projet/Telecommande_P4.X/LCD_SPI.c
149 1E38 0 CODE 0
151 1E38 0 CODE 0
152 1E3C 0 CODE 0
153 1E40 0 CODE 0
154 1E44 0 CODE 0
156 1E52 0 CODE 0
C:/Users/Sam/Desktop/UdeS/S5/Projet/Telecommande_P4.X/LCD_SPI.c
112 1DD0 0 CODE 0
116 1DD0 0 CODE 0
117 1DD4 0 CODE 0
119 1DD8 0 CODE 0
120 1DDC 0 CODE 0
122 1DE0 0 CODE 0
123 1DE4 0 CODE 0
126 1DE8 0 CODE 0
127 1DEE 0 CODE 0
128 1DF2 0 CODE 0
129 1DF4 0 CODE 0
130 1DF6 0 CODE 0
132 1DFA 0 CODE 0
C:/Users/Sam/Desktop/UdeS/S5/Projet/Telecommande_P4.X/LCD_SPI.c
134 1D5C 0 CODE 0
136 1D5C 0 CODE 0
137 1D62 0 CODE 0
138 1D64 0 CODE 0
139 1D66 0 CODE 0
140 1D68 0 CODE 0
141 1D6A 0 CODE 0
142 1D6C 0 CODE 0
143 1D6E 0 CODE 0
144 1D70 0 CODE 0
145 1D7E 0 CODE 0
146 1D8C 0 CODE 0
147 1D9A 0 CODE 0
C:/Users/Sam/Desktop/UdeS/S5/Projet/Telecommande_P4.X/LCD_SPI.c
30 1C6E 0 CODE 0
32 1C70 0 CODE 0
33 1C74 0 CODE 0
34 1C78 0 CODE 0
35 1C7C 0 CODE 0
36 1C80 0 CODE 0
37 1C84 0 CODE 0
38 1C88 0 CODE 0
39 1C8A 0 CODE 0
41 1C90 0 CODE 0
42 1CAC 0 CODE 0
43 1CAE 0 CODE 0
44 1CB4 0 CODE 0
45 1CBA 0 CODE 0
46 1CC0 0 CODE 0
47 1CC2 0 CODE 0
C:/Users/Sam/Desktop/UdeS/S5/Projet/Telecommande_P4.X/LCD_SPI.c
18 1D9C 0 CODE 0
20 1D9C 0 CODE 0
22 1DB8 0 CODE 0
23 1DBA 0 CODE 0
24 1DC0 0 CODE 0
25 1DC6 0 CODE 0
26 1DCC 0 CODE 0
28 1DCE 0 CODE 0
C:/Users/Sam/Desktop/UdeS/S5/Projet/Telecommande_P4.X/KeyBoard.c
31 E58 0 CODE 0
35 E58 0 CODE 0
36 E60 0 CODE 0
42 E72 0 CODE 0
43 E7A 0 CODE 0
45 E82 0 CODE 0
47 EAE 0 CODE 0
48 EBA 0 CODE 0
50 EE6 0 CODE 0
51 F5E 0 CODE 0
52 F8A 0 CODE 0
55 FB6 0 CODE 0
57 FE2 0 CODE 0
59 100E 0 CODE 0
60 1086 0 CODE 0
61 10B2 0 CODE 0
62 10DE 0 CODE 0
64 10F0 0 CODE 0
66 111C 0 CODE 0
68 1148 0 CODE 0
69 11B4 0 CODE 0
70 11E0 0 CODE 0
71 120C 0 CODE 0
72 1210 0 CODE 0
74 1210 0 CODE 0
75 1218 0 CODE 0
77 121C 0 CODE 0
78 1224 0 CODE 0
80 1250 0 CODE 0
81 125C 0 CODE 0
83 1288 0 CODE 0
84 1300 0 CODE 0
85 1378 0 CODE 0
86 13A4 0 CODE 0
87 13D0 0 CODE 0
88 13DC 0 CODE 0
90 13F8 0 CODE 0
92 1424 0 CODE 0
94 1450 0 CODE 0
95 14BC 0 CODE 0
96 14E8 0 CODE 0
97 1518 0 CODE 0
98 1518 0 CODE 0
99 1526 0 CODE 0
100 1532 0 CODE 0
102 1546 0 CODE 0
103 154E 0 CODE 0
105 157A 0 CODE 0
107 15A6 0 CODE 0
108 1612 0 CODE 0
109 163E 0 CODE 0
110 166E 0 CODE 0
112 1672 0 CODE 0
75 1672 0 CODE 0
113 1694 0 CODE 0
114 1694 0 CODE 0
116 16A2 0 CODE 0
C:/Users/Sam/Desktop/UdeS/S5/Projet/Telecommande_P4.X/KeyBoard.c
212 1982 0 CODE 0
214 1982 0 CODE 0
216 1986 0 CODE 0
217 1986 0 CODE 0
219 19A4 0 CODE 0
221 19A8 0 CODE 0
222 19A8 0 CODE 0
223 19C6 0 CODE 0
225 19CA 0 CODE 0
226 19CA 0 CODE 0
227 19E8 0 CODE 0
229 19EC 0 CODE 0
230 19EC 0 CODE 0
231 1A0A 0 CODE 0
233 1A0E 0 CODE 0
234 1A4E 0 CODE 0
C:/Users/Sam/Desktop/UdeS/S5/Projet/Telecommande_P4.X/KeyBoard.c
187 1C08 0 CODE 0
190 1C08 0 CODE 0
192 1C0C 0 CODE 0
193 1C0C 0 CODE 0
195 1C10 0 CODE 0
197 1C14 0 CODE 0
198 1C14 0 CODE 0
199 1C18 0 CODE 0
201 1C1C 0 CODE 0
202 1C1C 0 CODE 0
203 1C20 0 CODE 0
205 1C24 0 CODE 0
206 1C24 0 CODE 0
207 1C28 0 CODE 0
209 1C2C 0 CODE 0
210 1C6C 0 CODE 0
C:/Users/Sam/Desktop/UdeS/S5/Projet/Telecommande_P4.X/KeyBoard.c
19 1E66 0 CODE 0
23 1E66 0 CODE 0
25 1E68 0 CODE 0
26 1E6A 0 CODE 0
27 1E6C 0 CODE 0
28 1E6E 0 CODE 0
29 1E70 0 CODE 0
C:/Users/Sam/Desktop/UdeS/S5/Projet/Telecommande_P4.X/KeyBoard.c
118 16A4 0 CODE 0
121 16A4 0 CODE 0
123 16BE 0 CODE 0
124 16CE 0 CODE 0
125 16CE 0 CODE 0
127 16EC 0 CODE 0
128 16FC 0 CODE 0
129 16FC 0 CODE 0
131 171A 0 CODE 0
132 172A 0 CODE 0
133 172A 0 CODE 0
135 1748 0 CODE 0
136 1758 0 CODE 0
137 1758 0 CODE 0
139 1776 0 CODE 0
140 1786 0 CODE 0
141 1786 0 CODE 0
143 17A4 0 CODE 0
144 17B4 0 CODE 0
145 17B4 0 CODE 0
147 17D2 0 CODE 0
148 17E2 0 CODE 0
149 17E2 0 CODE 0
151 1800 0 CODE 0
152 1810 0 CODE 0
153 1810 0 CODE 0
155 182E 0 CODE 0
156 183E 0 CODE 0
157 183E 0 CODE 0
159 185C 0 CODE 0
160 186C 0 CODE 0
161 186C 0 CODE 0
163 188A 0 CODE 0
164 189A 0 CODE 0
165 189A 0 CODE 0
167 18B8 0 CODE 0
168 18C8 0 CODE 0
169 18C8 0 CODE 0
171 18E6 0 CODE 0
172 18F6 0 CODE 0
173 18F6 0 CODE 0
175 1914 0 CODE 0
176 1924 0 CODE 0
177 1924 0 CODE 0
179 1942 0 CODE 0
180 1952 0 CODE 0
181 1952 0 CODE 0
183 1970 0 CODE 0
184 1980 0 CODE 0
185 1980 0 CODE 0
C:/Users/Sam/Desktop/UdeS/S5/Projet/Telecommande_P4.X/LCD_SPI.c
48 1B10 0 CODE 0
51 1B10 0 CODE 0
53 1B1C 0 CODE 0
54 1B4E 0 CODE 0
56 1B98 0 CODE 0
C:/Users/Sam/Desktop/UdeS/S5/Projet/Telecommande_P4.X/LCD_SPI.c
57 1D1A 0 CODE 0
59 1D1C 0 CODE 0
61 1D24 0 CODE 0
62 1D40 0 CODE 0
63 1D42 0 CODE 0
64 1D48 0 CODE 0
65 1D50 0 CODE 0
66 1D58 0 CODE 0
68 1D5A 0 CODE 0
C:/Users/Sam/Desktop/UdeS/S5/Projet/Telecommande_P4.X/LCD_SPI.c
93 1DFC 0 CODE 0
97 1DFC 0 CODE 0
98 1DFE 0 CODE 0
99 1E04 0 CODE 0
100 1E0C 0 CODE 0
101 1E0E 0 CODE 0
102 1E10 0 CODE 0
103 1E18 0 CODE 0
C:/Users/Sam/Desktop/UdeS/S5/Projet/Telecommande_P4.X/LCD_SPI.c
11 1E1A 0 CODE 0
13 1E1C 0 CODE 0
14 1E20 0 CODE 0
15 1E34 0 CODE 0
16 1E36 0 CODE 0
C:/Users/Sam/Desktop/UdeS/S5/Projet/Telecommande_P4.X/LCD_SPI.c
69 1CC4 0 CODE 0
72 1CC6 0 CODE 0
73 1CDE 0 CODE 0
74 1CFA 0 CODE 0
76 1D12 0 CODE 0
77 1D18 0 CODE 0
